exam/traces.vcd
$date
     Apr 07, 2026       22:01:28
$end

$version
 SystemC 3.0.2-Accellera --- Mar 24 2026 23:57:44
$end

$timescale
     1 ps
$end

$scope module SystemC $end
$var wire    1  aaaaa  d       $end
$var wire    1  aaaab  r       $end
$var wire    1  aaaac  clk       $end
$upscope $end
$enddefinitions  $end

$comment
All initial values are dumped below at time 0 sec = 0 timescale units.
$end

$dumpvars
1aaaaa
0aaaab
1aaaac
$end

#5000
0aaaac

#10000
1aaaac

#15000
0aaaac

#20000
0aaaaa
1aaaac

#25000
0aaaac

#30000
1aaaaa
1aaaac

#35000
0aaaac

#40000
1aaaac

#45000
0aaaac

#50000
0aaaaa
1aaaab
1aaaac

#55000
0aaaac

#60000
1aaaaa
1aaaac

#65000
0aaaac

#70000
0aaaaa
1aaaac

#75000
0aaaac

#80000
0aaaab
1aaaac

#85000
0aaaac

#90000
1aaaab
1aaaac

#95000
0aaaac

#100000
1aaaac

#105000
0aaaac

#110000
0aaaab
1aaaac

#115000
0aaaac

#120000
1aaaab
1aaaac

#125000
0aaaac

#130000
0aaaab
1aaaac

