Counters/synchronous_up/traces.vcd
$date
     Jan 04, 2025       09:36:59
$end

$version
 SystemC 2.3.3-Accellera --- Jan  4 2023 16:42:11
$end

$timescale
     1 ps
$end

$scope module SystemC $end
$var wire    1  aaaaa  rst       $end
$var wire    1  aaaab  en       $end
$var wire    8  aaaac  counter_out [7:0]  $end
$var wire    1  aaaad  testclk       $end
$upscope $end
$enddefinitions  $end

$comment
All initial values are dumped below at time 0 sec = 0 timescale units.
$end

$dumpvars
1aaaaa
0aaaab
b0 aaaac
1aaaad
$end

#1000
0aaaaa
1aaaab
b1 aaaac
0aaaad

#2000
1aaaaa
b0 aaaac
1aaaad

#3000
0aaaaa
b1 aaaac
0aaaad

#4000
1aaaaa
b0 aaaac
1aaaad

#5000
0aaaaa
b1 aaaac
0aaaad

#6000
1aaaaa
b0 aaaac
1aaaad

#7000
0aaaaa
b1 aaaac
0aaaad

#8000
1aaaaa
b0 aaaac
1aaaad

#9000
0aaaaa
b1 aaaac
0aaaad

#10000
1aaaaa
b0 aaaac
1aaaad

#11000
0aaaaa
b1 aaaac
0aaaad

#12000
1aaaaa
0aaaab
b0 aaaac
1aaaad

#13000
0aaaaa
1aaaab
b1 aaaac
0aaaad

#14000
1aaaaa
b0 aaaac
1aaaad

#15000
0aaaaa
b1 aaaac
0aaaad

#16000
1aaaaa
b0 aaaac
1aaaad

#17000
0aaaaa
b1 aaaac
0aaaad

#18000
1aaaaa
b0 aaaac
1aaaad

#19000
0aaaaa
b1 aaaac
0aaaad

#20000
b10 aaaac
1aaaad

#21000
0aaaad

#22000
b11 aaaac
1aaaad

#23000
0aaaad

#24000
b100 aaaac
1aaaad

#25000
0aaaad

#26000
b101 aaaac
1aaaad

#27000
0aaaad

#28000
b110 aaaac
1aaaad

