FSM_all/FSM_thread/traces.vcd
$date
     Feb 03, 2026       09:41:17
$end

$version
 SystemC 3.0.2-Accellera --- Jan 27 2026 09:04:08
$end

$timescale
     1 ps
$end

$scope module SystemC $end
$var wire    1  aaaaa  rst       $end
$var wire    1  aaaab  in1       $end
$var wire    1  aaaac  clk       $end
$var wire    1  aaaad  out       $end
$var wire    2  aaaae  state [1:0]  $end
$upscope $end
$enddefinitions  $end

$comment
All initial values are dumped below at time 0 sec = 0 timescale units.
$end

$dumpvars
1aaaaa
1aaaab
1aaaac
0aaaad
b0 aaaae
$end

#5000
0aaaac

#10000
0aaaaa
1aaaac
b1 aaaae

#15000
0aaaac

#20000
0aaaab
1aaaac

#25000
0aaaac

#30000
1aaaab
1aaaac
1aaaad
b10 aaaae

#35000
0aaaac

#40000
0aaaab
1aaaac
0aaaad
b1 aaaae

#45000
0aaaac

#50000
1aaaab
1aaaac
1aaaad
b10 aaaae

#55000
0aaaac

#60000
0aaaab
1aaaac
0aaaad
b1 aaaae

#65000
0aaaac

#70000
1aaaac
b10 aaaae

#75000
0aaaac

#80000
1aaaac

#85000
0aaaac

#90000
1aaaac
b0 aaaae

