proj/trace.vcd
$date
     Apr 10, 2026       15:22:09
$end

$version
 SystemC 3.0.0-Accellera --- Feb 12 2026 11:22:55
$end

$timescale
     1 ns
$end

$scope module SystemC $end
$var wire   32  aaaaa  counter [31:0]  $end
$var wire   32  aaaab  control_reg [31:0]  $end
$var wire   32  aaaac  compare_reg [31:0]  $end
$var wire   32  aaaad  irq_status [31:0]  $end
$upscope $end
$enddefinitions  $end

$comment
All initial values are dumped below at time 0 sec = 0 timescale units.
$end

$dumpvars
b0 aaaaa
b0 aaaab
b0 aaaac
b0 aaaad
$end

#20
b1 aaaaa
b101 aaaab
b1010 aaaac

#30
b10 aaaaa

#40
b11 aaaaa

#50
b100 aaaaa

#60
b101 aaaaa

#70
b110 aaaaa

#80
b111 aaaaa

#90
b1000 aaaaa

#100
b1001 aaaaa

#110
b1010 aaaaa

#120
b1011 aaaaa

#130
b1100 aaaaa

#140
b1101 aaaaa

#150
b1110 aaaaa

#160
b1111 aaaaa

#170
b10000 aaaaa

#180
b10001 aaaaa

#190
b10010 aaaaa

#200
b10011 aaaaa

#210
b10100 aaaaa

#220
b10101 aaaaa

#230
b10110 aaaaa

#240
b10111 aaaaa

#250
b11000 aaaaa

#260
b11001 aaaaa

#270
b11010 aaaaa

#280
b11011 aaaaa

#290
b11100 aaaaa

#300
b11101 aaaaa

#310
b11110 aaaaa

#320
b11111 aaaaa

#330
b100000 aaaaa

#340
b100001 aaaaa

#350
b100010 aaaaa

#360
b100011 aaaaa

#370
b100100 aaaaa

#380
b100101 aaaaa

#390
b100110 aaaaa

#400
b100111 aaaaa

#410
b101000 aaaaa

#420
b101001 aaaaa

#430
b101010 aaaaa

#440
b101011 aaaaa

#450
b101100 aaaaa

#460
b101101 aaaaa

#470
b101110 aaaaa

#480
b101111 aaaaa

#490
b110000 aaaaa

#500
b110001 aaaaa

#510
b110010 aaaaa

#520
b110011 aaaaa

#530
b110100 aaaaa

#540
b110101 aaaaa

#550
b110110 aaaaa

#560
b110111 aaaaa

#570
b111000 aaaaa

#580
b111001 aaaaa

#590
b111010 aaaaa

#600
b111011 aaaaa

#610
b111100 aaaaa

#620
b111101 aaaaa

#630
b111110 aaaaa

#640
b111111 aaaaa

#650
b1000000 aaaaa

#660
b1000001 aaaaa

#670
b1000010 aaaaa

#680
b1000011 aaaaa

#690
b1000100 aaaaa

#700
b1000101 aaaaa

#710
b1000110 aaaaa

#720
b1000111 aaaaa

#730
b1001000 aaaaa

#740
b1001001 aaaaa

#750
b1001010 aaaaa

#760
b1001011 aaaaa

#770
b1001100 aaaaa

#780
b1001101 aaaaa

#790
b1001110 aaaaa

#800
b1001111 aaaaa

#810
b1010000 aaaaa

#820
b1010001 aaaaa

#830
b1010010 aaaaa

#840
b1010011 aaaaa

#850
b1010100 aaaaa

#860
b1010101 aaaaa

#870
b1010110 aaaaa

#880
b1010111 aaaaa

#890
b1011000 aaaaa

#900
b1011001 aaaaa

#910
b1011010 aaaaa

#920
b1011011 aaaaa

#930
b1011100 aaaaa

#940
b1011101 aaaaa

#950
b1011110 aaaaa

#960
b1011111 aaaaa

#970
b1100000 aaaaa

#980
b1100001 aaaaa

#990
b1100010 aaaaa

#1000
b1100011 aaaaa

#1010
b1100100 aaaaa

#1020
b1100101 aaaaa

#1030
b1100110 aaaaa

#1040
b1100111 aaaaa

#1050
b1101000 aaaaa

#1060
b1101001 aaaaa

#1070
b1101010 aaaaa

#1080
b1101011 aaaaa

#1090
b1101100 aaaaa

#1100
b1101101 aaaaa

#1110
b1101110 aaaaa

#1120
b1101111 aaaaa

#1130
b1110000 aaaaa

#1140
b1110001 aaaaa

#1150
b1110010 aaaaa

#1160
b1110011 aaaaa

#1170
b1110100 aaaaa

#1180
b1110101 aaaaa

#1190
b1110110 aaaaa

#1200
b1110111 aaaaa

#1210
b1111000 aaaaa

#1220
b1111001 aaaaa

#1230
b1111010 aaaaa

#1240
b1111011 aaaaa

#1250
b1111100 aaaaa

#1260
b1111101 aaaaa

#1270
b1111110 aaaaa

#1280
b1111111 aaaaa

#1290
b10000000 aaaaa

#1300
b10000001 aaaaa

#1310
b10000010 aaaaa

#1320
b10000011 aaaaa

#1330
b10000100 aaaaa

#1340
b10000101 aaaaa

#1350
b10000110 aaaaa

#1360
b10000111 aaaaa

#1370
b10001000 aaaaa

#1380
b10001001 aaaaa

#1390
b10001010 aaaaa

#1400
b10001011 aaaaa

#1410
b10001100 aaaaa

#1420
b10001101 aaaaa

#1430
b10001110 aaaaa

#1440
b10001111 aaaaa

#1450
b10010000 aaaaa

#1460
b10010001 aaaaa

#1470
b10010010 aaaaa

#1480
b10010011 aaaaa

#1490
b10010100 aaaaa

#1500
b10010101 aaaaa

#1510
b10010110 aaaaa

#1520
b10010111 aaaaa

#1530
b10011000 aaaaa

#1540
b10011001 aaaaa

#1550
b10011010 aaaaa

#1560
b10011011 aaaaa

#1570
b10011100 aaaaa

#1580
b10011101 aaaaa

#1590
b10011110 aaaaa

#1600
b10011111 aaaaa

#1610
b10100000 aaaaa

#1620
b10100001 aaaaa

#1630
b10100010 aaaaa

#1640
b10100011 aaaaa

#1650
b10100100 aaaaa

#1660
b10100101 aaaaa

#1670
b10100110 aaaaa

#1680
b10100111 aaaaa

#1690
b10101000 aaaaa

#1700
b10101001 aaaaa

#1710
b10101010 aaaaa

#1720
b10101011 aaaaa

#1730
b10101100 aaaaa

#1740
b10101101 aaaaa

#1750
b10101110 aaaaa

#1760
b10101111 aaaaa

#1770
b10110000 aaaaa

#1780
b10110001 aaaaa

#1790
b10110010 aaaaa

#1800
b10110011 aaaaa

#1810
b10110100 aaaaa

#1820
b10110101 aaaaa

#1830
b10110110 aaaaa

#1840
b10110111 aaaaa

#1850
b10111000 aaaaa

#1860
b10111001 aaaaa

#1870
b10111010 aaaaa

#1880
b10111011 aaaaa

#1890
b10111100 aaaaa

#1900
b10111101 aaaaa

#1910
b10111110 aaaaa

#1920
b10111111 aaaaa

#1930
b11000000 aaaaa

#1940
b11000001 aaaaa

#1950
b11000010 aaaaa

#1960
b11000011 aaaaa

#1970
b11000100 aaaaa

#1980
b11000101 aaaaa

#1990
b11000110 aaaaa

#2000
b11000111 aaaaa

#2010
b11001000 aaaaa

#2020
b11001001 aaaaa

#2030
b11001010 aaaaa

#2040
b11001011 aaaaa

#2050
b11001100 aaaaa

#2060
b11001101 aaaaa

#2070
b11001110 aaaaa

#2080
b11001111 aaaaa

#2090
b11010000 aaaaa

#2100
b11010001 aaaaa

#2110
b11010010 aaaaa

#2120
b11010011 aaaaa

#2130
b11010100 aaaaa

#2140
b11010101 aaaaa

#2150
b11010110 aaaaa

#2160
b11010111 aaaaa

#2170
b11011000 aaaaa

#2180
b11011001 aaaaa

#2190
b11011010 aaaaa

#2200
b11011011 aaaaa

#2210
b11011100 aaaaa

#2220
b11011101 aaaaa

#2230
b11011110 aaaaa

#2240
b11011111 aaaaa

#2250
b11100000 aaaaa

#2260
b11100001 aaaaa

#2270
b11100010 aaaaa

#2280
b11100011 aaaaa

#2290
b11100100 aaaaa

#2300
b11100101 aaaaa

#2310
b11100110 aaaaa

#2320
b11100111 aaaaa

#2330
b11101000 aaaaa

#2340
b11101001 aaaaa

#2350
b11101010 aaaaa

#2360
b11101011 aaaaa

#2370
b11101100 aaaaa

#2380
b11101101 aaaaa

#2390
b11101110 aaaaa

#2400
b11101111 aaaaa

#2410
b11110000 aaaaa

#2420
b11110001 aaaaa

#2430
b11110010 aaaaa

#2440
b11110011 aaaaa

#2450
b11110100 aaaaa

#2460
b11110101 aaaaa

#2470
b11110110 aaaaa

#2480
b11110111 aaaaa

#2490
b11111000 aaaaa

#2500
b11111001 aaaaa

#2510
b11111010 aaaaa

#2520
b11111011 aaaaa

#2530
b11111100 aaaaa

#2540
b11111101 aaaaa

#2550
b11111110 aaaaa

#2560
b0 aaaaa
b10 aaaad

#2570
b1 aaaaa

#2580
b10 aaaaa

#2590
b11 aaaaa

#2600
b100 aaaaa

#2610
b101 aaaaa

#2620
b110 aaaaa

#2630
b111 aaaaa

#2640
b1000 aaaaa

#2650
b1001 aaaaa

#2660
b1010 aaaaa

#2670
b1011 aaaaa

#2680
b1100 aaaaa

#2690
b1101 aaaaa

#2700
b1110 aaaaa

#2710
b1111 aaaaa

#2720
b10000 aaaaa

#2730
b10001 aaaaa

#2740
b10010 aaaaa

#2750
b10011 aaaaa

#2760
b10100 aaaaa

#2770
b10101 aaaaa

#2780
b10110 aaaaa

#2790
b10111 aaaaa

#2800
b11000 aaaaa

#2810
b11001 aaaaa

#2820
b11010 aaaaa

#2830
b11011 aaaaa

#2840
b11100 aaaaa

#2850
b11101 aaaaa

#2860
b11110 aaaaa

#2870
b11111 aaaaa

#2880
b100000 aaaaa

#2890
b100001 aaaaa

#2900
b100010 aaaaa

#2910
b100011 aaaaa

#2920
b100100 aaaaa

#2930
b100101 aaaaa

#2940
b100110 aaaaa

#2950
b100111 aaaaa

#2960
b101000 aaaaa

#2970
b101001 aaaaa

#2980
b101010 aaaaa

#2990
b101011 aaaaa

